<!DOCTYPE html>
<html>
<head>
  <meta charset="utf-8">
  <meta name="viewport" content="width=device-width">
  <title>JS Bin</title>
  <link href="styleGaleria.css" rel="stylesheet" type="text/css"/>
</head>
<body>
  <figure class="photo">
    <img src="2018-04-24-8636.jpg"
         alt="Kotek Robert">
    <figcaption>
      Kotek Robert
    </figcaption>
  </figure>
  
    <figure class="photo">
    <img src="2018-04-24-8636.jpg"
         alt="Kotek Puszek">
    <figcaption>
      Kotek Puszek
    </figcaption> 
  </figure>
  


</body>
</html>